E1: OK : a source is foo
E2: OK : not (a source is foo)
E3: OK : not (a source is foo) and a source is foo
E4: OK : a source is foo and not (a source is foo)
E5: OK : a source is not foo
E6: OK : a destination network is 10
E7: OK : a destination network is not 10
E8: OK : a source host is host
E9: OK : a source host is not host
E10: OK : a port range is 6000-6008
E11: OK : a port range is not 6000-6008
E12: OK : of type ip4
E13: OK : protocol is ip4
E14: OK : not of type tcp
E15: OK : protocol is not tcp
E16: OK : ip4 that has source foo
E17: OK : ip4 that does not have source foo
E18: OK : ip4 that has a source of foo
E19: OK : ip4 that does not have a source of foo
E20: OK : ip4 that is broadcast
E21: OK : ip4 that is not broadcast
E22: OK : a destination network is 172.16 with mask 255.255.0.0
E23: OK : a destination network is 172.16 with a mask of 255.255.0.0
E24: OK : a destination network is not 172.16 with mask 255.255.0.0
E25: OK : a destination network is 172.16 of length 16 bits
E26: OK : a destination network is 10 of length 8 bits
E27: OK : ip4 that has a source of foo or
        arp that has a source of foo or
        rarp that has a source of foo
E28: OK : ip4 that has a network of bar or
        arp that has a network of bar or
        rarp that has a network of bar
E29: OK : tcp that has a port of 53 or
        udp that has a port of 53
E30: OK : ip4 that has a network of bar or
        arp that has a network of bar or
        rarp that has a network of bar
E31: OK : a host is foo and 
        a port is not ftp and 
        a port is not ftp-data
E32: OK : tcp that has a destination port of ftp or
        tcp that has a destination port of ftp-data or
        tcp that has a destination port of domain
E33: OK : ethernet that has a proto of ip4 and
        a host is host
E34: OK : ethernet that has a destination of ehost
E35: OK : ethernet that has a source of ehost
E36: OK : ethernet that has a host of ehost
E37: OK : a gateway is host
E38: OK : ethernet that has a host of ehost and
        a host is not host
E39: OK : a host is not vs and a host is not ace
E40: OK : a host is not vs and a host is ace
E41: OK : {0} equals {0}
E42: OK : {ip[0]} equals {0}
E43: OK : not ({ip[0]} equals {0})
E44: OK : {# the 0th byte of the ethernet header} 
        does not equal {0}
E45: OK : {# the 0th byte of the ethernet header & 1} 
        does not equal {0}
E46: OK : {# the 0th byte of the ip4 header & 0xf} 
        does not equal {5}
E47: OK : {# the 6th 2 bytes of the ip4 header & 0x1fff} 
        equals {0}
E48: OK : {tcp[tcpflags] & (tcp-syn | tcp-fin)} does not equal {0}
E49: OK : examining the 1st byte of the tcp header:  
        it equals {25}
E50: OK : examining the 0th byte of the ethernet header:
        {1 & # it} does not equal {0}
E52: OK : examining the 0th byte of the ip4 header:
        {# it & 0xf} does not equal {5}
E53: OK : examining the 6th 2 bytes of the ip4 header: 
        {# it & 0x1fff} equals {0}
E54: OK : if (a source is foo), then (a host is ace)
E55: OK : if a source is foo, then a host is ace
E56: OK : if not (a source is foo), then not (a host is ace)
E57: OK : if a port is ftp, then a net is 10
E58: OK : if a source is foo,
        then (if a port is ftp,
              then a net is 10)
E59: OK : if (a source is foo and a net is 42),
        then a host is ace
E60: OK : if a source is foo,
        then a host is ace;
        else ip4 that has destination foo
E61: OK : if tcp that has source port 443,
        then the 5th byte of the tcp header is {5};
        else the 4th byte of the tcp header is less than {5}
E62: OK : a port is one of [ftp, ftp-data]
E63: OK : a port is in [ftp, ftp-data]
E64: OK : a port is not one of [ftp, ftp-data]
E65: OK : a port is not in [ftp, ftp-data]
E66: OK : a port is one of [ftp, ftp-data, domain]
E67: OK : tcp that has a destination port 
        which is one of [ftp, ftp-data, domain]
E68: OK : tcp that has a destination port 
        which is in [ftp, ftp-data, domain]
E69: OK : a port is ftp if and only if a source is foo
E70: OK : not (a port is ftp) if and only if not (a source is foo)
E71: OK : (a port is ftp if and only if a source is foo) and a net is 10
E72: OK : a port is ftp if and only if (a source is foo and a net is 10)
E73: OK : (a port is ftp and a net is 10) if and only if a source is foo
E74: OK : a port is ftp and (a net is 10 if and only if a source is foo)
E75: OK : a host is 0:0:0:0:0:0:0:1
E76: OK : of type inbound
E77: OK : of type outbound
E78: OK : the port of the tcp header is 80
E79: OK : the source address of the IPv4 header is foo
E80: OK : the source of some header is foo
E81: OK : the source of some header is not foo
E82: OK : the destination network of some header is 10
E83: OK : the source host of some header is host
E84: OK : the port range of some header is 6000-6008
E85: OK : protocol is ip4
E86: OK : protocol is not tcp
E87: OK : the source of the IPv4 header is foo
E88: OK : ip4 that is broadcast
E89: OK : ip4 that is not broadcast
E90: OK : the destination network of some header is 172.16 with mask 255.255.0.0
E91: OK : the destination network of some header is 172.16 with a mask of 255.255.0.0
E92: OK : the destination network of some header is 172.16 of length 16 bits
E93: OK : the destination network of some header is 10 of length 8 bits
E94: OK : the source of the IPv4 header is foo or
        the source of the arp header is foo or
        the source of the rarp header is foo
E95: OK : the network of the IPv4 header is bar or
        the network of the arp header is bar or
        the network of the rarp header is bar
E96: OK : the port of the tcp header is 53 or
        the port of the udp header is 53
E97: OK : the host of some header is foo and
        the port of some header is not ftp and
        the port of some header is not ftp-data
E98: OK : the destination port of the tcp header is ftp or
        the destination port of the tcp header is ftp-data or
        the destination port of the tcp header is domain
E99: OK : the proto of the ethernet header is ip4 and
        the host of some header is host
E100: OK : the destination of the ethernet header is ehost
E101: OK : the source of the ethernet header is ehost
E102: OK : the host of the ethernet header is ehost
E103: OK : the gateway of some header is host
E104: OK : the host of the ethernet header is ehost and
        the host of some header is not host
E105: OK : the host of some header is not vs and the host of some header is not ace
E106: OK : the host of some header is not vs and the host of some header is ace
E107: OK : {0} equals {0}
E108: OK : {ip[0]} equals {0}
E109: OK : not ({ip[0]} equals {0})
E110: OK : {# the 0th byte of the ethernet header} 
        does not equal {0}
E111: OK : {# the 0th byte of the ethernet header & 1} 
        does not equal {0}
E112: OK : {# the 0th byte of the ip4 header & 0xf} 
        does not equal {5}
E113: OK : {# the 6th 2 bytes of the ip4 header & 0x1fff} 
        equals {0}
E114: OK : {tcp[tcpflags] & (tcp-syn | tcp-fin)} does not equal {0}
E115: OK : examining the 1st byte of the tcp header:  
        it equals {25}
E116: OK : examining the 0th byte of the ethernet header:
        {1 & # it} does not equal {0}
E117: OK : examining the 0th byte of the ip4 header:
        {# it & 0xf} does not equal {5}
E118: OK : examining the 6th 2 bytes of the ip4 header: 
        {# it & 0x1fff} equals {0}
E119: OK : if (the source of some header is foo), then (the host of some header is ace)
E120: OK : if the source of some header is foo, then the host of some header is ace
E121: OK : if not (the source of some header is foo), then not (the host of some header is ace)
E122: OK : if the port of some header is ftp, then the net of some header is 10
E123: OK : if the source of some header is foo,
        then (if the port of some header is ftp,
              then the net of some header is 10)
E124: OK : if (the source of some header is foo and the net of some header is 42),
        then the host of some header is ace
E125: OK : if the source of some header is foo,
        then the host of some header is ace;
        else ip4 that has destination foo
E126: OK : if the source port of the tcp header is 443,
        then the 5th byte of the tcp header is {5};
        else the 4th byte of the tcp header is less than {5}
E127: OK : the port of some header is one of [ftp, ftp-data]
E128: OK : the port of some header is in [ftp, ftp-data]
E129: OK : the port of some header is not one of [ftp, ftp-data]
E130: OK : the port of some header is not in [ftp, ftp-data]
E131: OK : the port of some header is one of [ftp, ftp-data, domain]
E132: OK : the destination port of the tcp header 
        is one of [ftp, ftp-data, domain]
E133: OK : the destination port of the tcp header 
        is in [ftp, ftp-data, domain]
E134: OK : the port of some header is ftp if and only if the source of some header is foo
E135: OK : not (the port of some header is ftp) if and only if not (the source of some header is foo)
E136: OK : (the port of some header is ftp if and only if the source of some header is foo) and the net of some header is 10
E137: OK : the port of some header is ftp if and only if (the source of some header is foo and the net of some header is 10)
E138: OK : (the port of some header is ftp and the net of some header is 10) if and only if the source of some header is foo
E139: OK : the port of some header is ftp and (the net of some header is 10 if and only if the source of some header is foo)
E140: OK : the host of some header is 0:0:0:0:0:0:0:1
E141: OK : direction is inbound
E142: OK : direction is outbound
E143: OK : (protocol is IPv4 and the eighth 2 bytes of the udp header is equal to { 0x1111 }) or (the eighth 2 bytes of the icmp header is equal to { 0x1111 } or { tcp[(tcp[12] & 0xf0) >> 2 : 2] } is equal to { 0x1111 })
E144: OK : the port of the tcp header is 80 and { (# the total length of the IPv4 header - (ip[0] & 0xf) << 2) - (tcp[12] & 0xf0) >> 2 } does not equal { 0 }
E145: OK : the destination host of the IPv6 header is fe80:0000:0000:0000:1111:11ff:fe11:1111
E146: OK : the port of some header is 80 and { tcp[(tcp[12 : 1] & 0xf0) >> 2 : 4] } is equal to { 0x12345678 }
E147: OK : the source port of the tcp header is less than { 81 }
E148: OK : the destination port of the tcp header is less than { 81 }
E149: OK : the source address of the IPv4 header is greater than { 0 }
E150: OK : the destination address of the IPv4 header is greater than { 0 }
E151: OK : the source port of the udp header is less than { 21 }
E152: OK : the protocol of the ip4 header is equal to { 0x37 }
E153: OK : the nextHeader of the ip6 header is equal to { 0x37 }
E154: OK : the CWR of the tcp header is less than { 20 }
E156: OK : ip4 with protocol 0x37
E157: OK : ip6 with nextHeader 0x37
E158: OK : tcp with acknowledgement number 0x20
E159: OK : tcp with flag CWR
E160: OK : tcp with flag SYN
E161: OK : tcp with flag FIN
E162: OK : tcp with flags [SYN, FIN]
E163: OK : tcp with flags [ECE, SYN]
E165: OK : tcp with flag ACK and tcp with acknowledgement number 0x20
